%YAML 1.1
%TAG !u! tag:unity3d.com,2011:
--- !u!114 &3799315388381055072
MonoBehaviour:
  m_ObjectHideFlags: 0
  m_CorrespondingSourceObject: {fileID: 0}
  m_PrefabInstance: {fileID: 0}
  m_PrefabAsset: {fileID: 0}
  m_GameObject: {fileID: 6135120564700159178}
  m_Enabled: 1
  m_EditorHideFlags: 0
  m_Script: {fileID: 11500000, guid: c97528401930375408f151d020244d80, type: 3}
  m_Name: 
  m_EditorClassIdentifier: 
  scene: GameScene
--- !u!1001 &5570025867869242536
PrefabInstance:
  m_ObjectHideFlags: 0
  serializedVersion: 2
  m_Modification:
    m_TransformParent: {fileID: 0}
    m_Modifications:
    - target: {fileID: 1758909255214225504, guid: a923c5f4b79ee034b834fc78ab8d5c79,
        type: 3}
      propertyPath: m_OnClick.m_PersistentCalls.m_Calls.Array.data[0].m_Target
      value: 
      objectReference: {fileID: 3799315388381055072}
    - target: {fileID: 1758909255214225504, guid: a923c5f4b79ee034b834fc78ab8d5c79,
        type: 3}
      propertyPath: m_OnClick.m_PersistentCalls.m_Calls.Array.data[0].m_MethodName
      value: Load
      objectReference: {fileID: 0}
    - target: {fileID: 1758909255214225506, guid: a923c5f4b79ee034b834fc78ab8d5c79,
        type: 3}
      propertyPath: m_Name
      value: Button
      objectReference: {fileID: 0}
    - target: {fileID: 1758909255214225507, guid: a923c5f4b79ee034b834fc78ab8d5c79,
        type: 3}
      propertyPath: m_Pivot.x
      value: 0.5
      objectReference: {fileID: 0}
    - target: {fileID: 1758909255214225507, guid: a923c5f4b79ee034b834fc78ab8d5c79,
        type: 3}
      propertyPath: m_Pivot.y
      value: 0.5
      objectReference: {fileID: 0}
    - target: {fileID: 1758909255214225507, guid: a923c5f4b79ee034b834fc78ab8d5c79,
        type: 3}
      propertyPath: m_RootOrder
      value: 0
      objectReference: {fileID: 0}
    - target: {fileID: 1758909255214225507, guid: a923c5f4b79ee034b834fc78ab8d5c79,
        type: 3}
      propertyPath: m_AnchorMax.x
      value: 0.5
      objectReference: {fileID: 0}
    - target: {fileID: 1758909255214225507, guid: a923c5f4b79ee034b834fc78ab8d5c79,
        type: 3}
      propertyPath: m_AnchorMax.y
      value: 0.5
      objectReference: {fileID: 0}
    - target: {fileID: 1758909255214225507, guid: a923c5f4b79ee034b834fc78ab8d5c79,
        type: 3}
      propertyPath: m_AnchorMin.x
      value: 0.5
      objectReference: {fileID: 0}
    - target: {fileID: 1758909255214225507, guid: a923c5f4b79ee034b834fc78ab8d5c79,
        type: 3}
      propertyPath: m_AnchorMin.y
      value: 0.5
      objectReference: {fileID: 0}
    - target: {fileID: 1758909255214225507, guid: a923c5f4b79ee034b834fc78ab8d5c79,
        type: 3}
      propertyPath: m_SizeDelta.x
      value: 160
      objectReference: {fileID: 0}
    - target: {fileID: 1758909255214225507, guid: a923c5f4b79ee034b834fc78ab8d5c79,
        type: 3}
      propertyPath: m_SizeDelta.y
      value: 30
      objectReference: {fileID: 0}
    - target: {fileID: 1758909255214225507, guid: a923c5f4b79ee034b834fc78ab8d5c79,
        type: 3}
      propertyPath: m_LocalPosition.x
      value: 0
      objectReference: {fileID: 0}
    - target: {fileID: 1758909255214225507, guid: a923c5f4b79ee034b834fc78ab8d5c79,
        type: 3}
      propertyPath: m_LocalPosition.y
      value: 0
      objectReference: {fileID: 0}
    - target: {fileID: 1758909255214225507, guid: a923c5f4b79ee034b834fc78ab8d5c79,
        type: 3}
      propertyPath: m_LocalPosition.z
      value: 0
      objectReference: {fileID: 0}
    - target: {fileID: 1758909255214225507, guid: a923c5f4b79ee034b834fc78ab8d5c79,
        type: 3}
      propertyPath: m_LocalRotation.w
      value: 1
      objectReference: {fileID: 0}
    - target: {fileID: 1758909255214225507, guid: a923c5f4b79ee034b834fc78ab8d5c79,
        type: 3}
      propertyPath: m_LocalRotation.x
      value: 0
      objectReference: {fileID: 0}
    - target: {fileID: 1758909255214225507, guid: a923c5f4b79ee034b834fc78ab8d5c79,
        type: 3}
      propertyPath: m_LocalRotation.y
      value: 0
      objectReference: {fileID: 0}
    - target: {fileID: 1758909255214225507, guid: a923c5f4b79ee034b834fc78ab8d5c79,
        type: 3}
      propertyPath: m_LocalRotation.z
      value: 0
      objectReference: {fileID: 0}
    - target: {fileID: 1758909255214225507, guid: a923c5f4b79ee034b834fc78ab8d5c79,
        type: 3}
      propertyPath: m_AnchoredPosition.x
      value: 0
      objectReference: {fileID: 0}
    - target: {fileID: 1758909255214225507, guid: a923c5f4b79ee034b834fc78ab8d5c79,
        type: 3}
      propertyPath: m_AnchoredPosition.y
      value: 0
      objectReference: {fileID: 0}
    - target: {fileID: 1758909255214225507, guid: a923c5f4b79ee034b834fc78ab8d5c79,
        type: 3}
      propertyPath: m_LocalEulerAnglesHint.x
      value: 0
      objectReference: {fileID: 0}
    - target: {fileID: 1758909255214225507, guid: a923c5f4b79ee034b834fc78ab8d5c79,
        type: 3}
      propertyPath: m_LocalEulerAnglesHint.y
      value: 0
      objectReference: {fileID: 0}
    - target: {fileID: 1758909255214225507, guid: a923c5f4b79ee034b834fc78ab8d5c79,
        type: 3}
      propertyPath: m_LocalEulerAnglesHint.z
      value: 0
      objectReference: {fileID: 0}
    - target: {fileID: 1758909256495698794, guid: a923c5f4b79ee034b834fc78ab8d5c79,
        type: 3}
      propertyPath: m_text
      value: Restart
      objectReference: {fileID: 0}
    m_RemovedComponents: []
  m_SourcePrefab: {fileID: 100100000, guid: a923c5f4b79ee034b834fc78ab8d5c79, type: 3}
--- !u!1 &6135120564700159178 stripped
GameObject:
  m_CorrespondingSourceObject: {fileID: 1758909255214225506, guid: a923c5f4b79ee034b834fc78ab8d5c79,
    type: 3}
  m_PrefabInstance: {fileID: 5570025867869242536}
  m_PrefabAsset: {fileID: 0}
